…
``` r
fish
```

    ## # A tibble: 97 x 11
    ##    quantity price   mon  tues   wed thurs speed2 wave2 speed3 wave3  time
    ##       <dbl> <dbl> <dbl> <dbl> <dbl> <dbl>  <dbl> <dbl>  <dbl> <dbl> <dbl>
    ##  1     4080 0.700     1     0     0     0     15   7.5     20   9       1
    ##  2     3466 1.01      0     0     1     0     10   5       20   7.5     2
    ##  3     2295 1.39      0     0     0     1     10   6       20   4       3
    ##  4     1870 1.78      0     0     0     0     15   6       20   5       4
    ##  5     6885 0.827     1     0     0     0     10   3.5     20   3.5     5
    ##  6     5605 0.890     0     1     0     0     15   4.5     15   3.5     6
    ##  7     4959 0.792     0     0     1     0     10   4.5     20   3.5     7
    ##  8     2185 0.926     0     0     0     1     10   4       20   4.5     8
    ##  9     9320 0.700     0     0     0     0     10   4       15   4.5     9
    ## 10     6793 1.49      1     0     0     0     20  12.5     20   3.5    10
    ## # ... with 87 more rows
…
